\relax 
\ifx\hyper@anchor\@undefined
\global \let \oldcontentsline\contentsline
\gdef \contentsline#1#2#3#4{\oldcontentsline{#1}{#2}{#3}}
\global \let \oldnewlabel\newlabel
\gdef \newlabel#1#2{\newlabelxx{#1}#2}
\gdef \newlabelxx#1#2#3#4#5#6{\oldnewlabel{#1}{{#2}{#3}}}
\AtEndDocument{\let \contentsline\oldcontentsline
\let \newlabel\oldnewlabel}
\else
\global \let \hyper@last\relax 
\fi

\@writefile{toc}{\contentsline {section}{\numberline {1}\relax \fontsize  {12}{14}\selectfont  Periodic 2D media}{1}{section.1}}
\@writefile{toc}{\contentsline {subsection}{\numberline {1.1}\relax \fontsize  {12}{14}\selectfont  Elastic behavior}{1}{subsection.1.1}}
\@writefile{toc}{\contentsline {subsection}{\numberline {1.2}\relax \fontsize  {12}{14}\selectfont  Elasto-plastic behavior}{2}{subsection.1.2}}
\@writefile{toc}{\contentsline {section}{\numberline {2}\relax \fontsize  {12}{14}\selectfont  Random 2D media}{2}{section.2}}
\bibstyle{unsrt}
\bibdata{TOOLS/GC}
\@writefile{toc}{\contentsline {subsection}{\numberline {2.1}\relax \fontsize  {12}{14}\selectfont  Elastic behavior}{3}{subsection.2.1}}
\@writefile{toc}{\contentsline {subsection}{\numberline {2.2}\relax \fontsize  {12}{14}\selectfont  Elasto-plastic behavior}{3}{subsection.2.2}}
